/Users/m.a.schubert/Projects/Tutorials/GildedRose/src/test/java/com/gildedrose/GildedRoseTest.java
/Users/m.a.schubert/Projects/Tutorials/GildedRose/src/test/java/com/gildedrose/TexttestFixture.java
/Users/m.a.schubert/Projects/Tutorials/GildedRose/src/test/java/com/gildedrose/service/CsvReaderTest.java
